monkey_test/bugreport_out/raw/am_logs.vcd
$timescale 1ms $end
$scope am_logs $end
$var wire 1 a44 com.letv.android.usagestats $end
$var wire 1 a28 com.android.printspooler $end
$var wire 1 a49 com.fw.upgrade.sysoper $end
$var wire 1 a4 WebViewLoader-arm64-v8a $end
$var wire 1 a62 com.android.defcontainer $end
$var wire 1 a19 com.stv.android.videochat $end
$var wire 1 a88 com.letv.android.fannation $end
$var wire 1 a55 com.letv.android.ecoProvider $end
$var wire 1 a66 com.android.calendar/.IClockService $end
$var wire 1 a40 com.letv.bugpostbox $end
$var wire 1 a48 com.android.contacts $end
$var wire 1 a31 com.android.deskclock $end
$var wire 1 a22 com.letv.domain $end
$var wire 1 a78 com.mediatek.thermalmanager $end
$var wire 1 a32 com.letv.android.emojistore $end
$var wire 1 a65 com.softsim.control $end
$var wire 1 a7 android.process.media $end
$var wire 1 a45 com.letv.agnes $end
$var wire 1 a93 com.tencent.mm/.booter.CoreService $end
$var wire 1 a76 com.letv.leui.schpwronoff $end
$var wire 1 a1 com.mediatek.floatmenu $end
$var wire 1 a39 com.letv.android.mobileactivation $end
$var wire 1 a27 com.android.launcher3 $end
$var wire 1 a82 com.android.inputmethod.latin $end
$var wire 1 a97 com.svox.pico $end
$var wire 1 a70 com.letv.android.systemreport $end
$var wire 1 a81 com.letv.android.letvlive $end
$var wire 1 a18 com.mediatek.voiceextension $end
$var wire 1 a84 com.tencent.mm:exdevice $end
$var wire 1 a25 com.letv.android.privacydata $end
$var wire 1 a29 com.letv.app.appstore $end
$var wire 1 a53 com.android.cellbroadcastreceiver $end
$var wire 1 a9 com.android.systemui:imagewallpaper $end
$var wire 1 a15 com.mediatek.wfo.impl $end
$var wire 1 a6 com.android.systemui $end
$var wire 1 a101 com.wandoujia.phoenix2.usbproxy $end
$var wire 1 a57 com.letv.walletbiz $end
$var wire 1 a96 com.letv.android.quicksearchbox $end
$var wire 1 a98 com.example.demo1/com.example.plokmju.testmutilecompile.MainActivity $end
$var wire 1 a26 com.android.launcher3/.Launcher $end
$var wire 1 a87 com.letv.android.account $end
$var wire 1 a77 com.letv.android.theme $end
$var wire 1 a50 com.letv.android.letvlive:pushservice $end
$var wire 1 a79 com.mediatek.omacp $end
$var wire 1 a36 com.letv.android.wallpaperonline $end
$var wire 1 a71 com.mediatek.atci.service $end
$var wire 1 a17 com.android.mms $end
$var wire 1 a59 com.letv.android.accountinfo $end
$var wire 1 a99 com.example.demo1 $end
$var wire 1 a86 com.letv.android.client:push $end
$var wire 1 a80 com.mediatek.schpwronoff $end
$var wire 1 a2 com.mediatek.mtklogger $end
$var wire 1 a33 com.android.calendar $end
$var wire 1 a41 com.android.settings $end
$var wire 1 a37 com.android.exchange $end
$var wire 1 a8 com.tencent.mm $end
$var wire 1 a52 com.android.dialer $end
$var wire 1 a12 com.android.phone $end
$var wire 1 a67 com.letv.bsp.crashhandler $end
$var wire 1 a20 com.letv.gallery3d.syncservice $end
$var wire 1 a91 com.letv.games $end
$var wire 1 a43 com.mediatek.engineermode $end
$var wire 1 a56 com.letv.android.note $end
$var wire 1 a34 com.android.providers.calendar $end
$var wire 1 a89 com.letv.leui.sdk.data $end
$var wire 1 a51 com.mediatek.ppl $end
$var wire 1 a5 com.android.externalstorage $end
$var wire 1 a95 com.android.settings/.UsbSettings $end
$var wire 1 a30 android.process.acore $end
$var wire 1 a64 com.android.keychain $end
$var wire 1 a72 com.mediatek.batterywarning $end
$var wire 1 a68 com.android.managedprovisioning $end
$var wire 1 a10 com.baidu.input_letv $end
$var wire 1 a11 com.baidu.map.location $end
$var wire 1 a58 com.mediatek.providers.drm $end
$var wire 1 a23 com.letv.android.phonecontrol $end
$var wire 1 a90 com.lesports.glivesports $end
$var wire 1 a38 com.android.email $end
$var wire 1 a73 com.letv.android.backup $end
$var wire 1 a21 com.mediatek.nlpservice $end
$var wire 1 a69 com.android.onetimeinitializer $end
$var wire 1 a16 com.letv.android.freeflow $end
$var wire 1 a47 com.letv.android.filemanager $end
$var wire 1 a94 com.letv.bugpostbox/.ExceptionSendService $end
$var wire 1 a63 com.tencent.mm:push $end
$var wire 1 a54 com.android.music $end
$var wire 1 a46 com.letv.leui.widget.leclipboardapp $end
$var wire 1 a92 com.letv.android.supermanager $end
$var wire 1 a74 com.letv.android.ota $end
$var wire 1 a13 com.mediatek.gba $end
$var wire 1 a100 com.wandoujia.phoenix2.usbproxy/com.wandoujia.phoenix2.ui.WelcomeActivity $end
$var wire 1 a85 com.letv.android.usermanual $end
$var wire 1 a61 com.letv.android.themestore $end
$var wire 1 a60 com.letv.android.cloudservice $end
$var wire 1 a75 com.letv.android.personalized $end
$var wire 1 a42 com.stv.stvpush $end
$var wire 1 a35 sina.mobile.tianqitongletv $end
$var wire 1 a14 com.mediatek.ims $end
$var wire 1 a3 WebViewLoader-armeabi-v7a $end
$var wire 1 a83 com.letv.android.bugreporter $end
$var wire 1 a24 com.dolby $end
$upscope $end
$enddefinitions $end
#7162490610
b0 a44
b0 a28
b0 a49
b0 a4
b0 a62
b0 a19
b0 a88
b0 a55
b- a66
b0 a40
b0 a48
b0 a31
b0 a22
b0 a78
b0 a32
b0 a65
b0 a7
b0 a45
b- a93
b0 a76
b0 a1
b0 a39
b0 a27
b0 a82
b0 a97
b0 a70
b0 a81
b0 a18
b0 a84
b0 a25
b0 a29
b0 a53
b0 a9
b0 a15
b0 a6
b0 a101
b0 a57
b0 a96
bZ a98
bZ a26
b0 a87
b0 a77
b0 a50
b0 a79
b0 a36
b0 a71
b0 a17
b0 a59
b0 a99
b0 a86
b0 a80
b0 a2
b0 a33
b0 a41
b0 a37
b0 a8
b0 a52
b0 a12
b0 a67
b0 a20
b0 a91
b0 a43
b0 a56
b0 a34
b0 a89
b0 a51
b0 a5
bZ a95
b0 a30
b0 a64
b0 a72
b0 a68
b0 a10
b0 a11
b0 a58
b0 a23
b0 a90
b0 a38
b0 a73
b0 a21
b0 a69
b0 a16
b0 a47
b- a94
b0 a63
b0 a54
b0 a46
b0 a92
b0 a74
b0 a13
bZ a100
b0 a85
b0 a61
b0 a60
b0 a75
b0 a42
b0 a35
b0 a14
b0 a3
b0 a83
b0 a24
#7162505327
bZ a1
#7162505342
bZ a2
#7162505406
bZ a3
#7162505418
bZ a4
#7162505430
bZ a5
#7162505442
bZ a6
#7162505594
bZ a7
#7162506477
bZ a8
#7162506544
bZ a9
#7162506572
bZ a10
#7162506722
bZ a11
#7162506815
bZ a12
#7162506829
bZ a13
#7162506842
bZ a14
#7162506857
bZ a15
#7162506871
bZ a16
#7162506889
bZ a17
#7162506903
bZ a18
#7162506923
bZ a19
#7162506939
bZ a20
#7162506965
bZ a21
#7162506985
bZ a22
#7162507009
bZ a23
#7162507024
bZ a24
#7162507036
bZ a25
#7162507049
b- a26
#7162507063
bZ a27
#7162507111
bZ a28
#7162507155
bX a26
#7162507984
bZ a29
#7162508085
bZ a30
#7162508647
bZ a31
#7162508830
bZ a32
#7162509000
bZ a33
#7162509214
bZ a34
#7162509678
bZ a35
#7162510794
bZ a36
#7162510862
b- a26
#7162510893
bZ a37
#7162511044
bZ a38
#7162512169
bZ a39
#7162512671
bZ a40
#7162512842
bZ a41
#7162512886
bZ a42
#7162513023
bZ a43
#7162513037
bZ a44
#7162513047
bZ a45
#7162513058
bZ a46
#7162513142
bZ a47
#7162513429
bZ a48
#7162513804
bZ a49
#7162513806
b0 a1
#7162513887
b0 a5
#7162513930
bZ a50
#7162514022
b0 a49
#7162514295
bZ a51
#7162514295
b0 a30
#7162514340
bZ a30
#7162514456
b0 a31
#7162514555
b0 a33
#7162514759
bZ a52
#7162515276
bZ a53
#7162515386
bZ a31
#7162515455
bZ a33
#7162515569
b0 a34
#7162515652
b0 a37
#7162515697
bZ a34
#7162515763
b0 a38
#7162515806
bZ a54
#7162515846
b0 a47
#7162516260
bZ a55
#7162516329
bZ a56
#7162516537
b0 a8
#7162516552
bZ a57
#7162516606
b0 a43
#7162516806
b0 a35
#7162516836
bZ a58
#7162516909
b0 a28
#7162516945
bZ a38
#7162517014
b0 a50
#7162517204
b0 a34
#7162517218
bZ a59
#7162517230
bZ a37
#7162517330
bZ a60
#7162517399
b0 a51
#7162517467
b0 a48
#7162517553
b0 a30
#7162517584
bZ a61
#7162517819
bZ a50
#7162517894
b0 a52
#7162517946
bZ a62
#7162518054
bZ a35
#7162518126
b0 a41
#7162518377
b0 a39
#7162518417
bZ a39
#7162518543
b0 a53
#7162518557
bZ a63
#7162519538
bZ a51
#7162519699
b0 a40
#7162519751
bZ a64
#7162519876
b0 a55
#7162519898
bZ a52
#7162520026
bZ a65
#7162520039
bZ a30
#7162520383
b0 a56
#7162520385
b0 a57
#7162520407
bZ a56
#7162520603
b0 a33
#7162520604
bZ a66
#7162520644
bZ a40
#7162520748
bZ a34
#7162520865
b0 a31
#7162520934
b0 a58
#7162520963
bZ a67
#7162521145
bZ a68
#7162521256
b0 a59
#7162521276
bZ a69
#7162521316
bZ a41
#7162521394
b0 a38
#7162521535
b0 a37
#7162521574
bZ a70
#7162521618
bZ a71
#7162521695
b0 a32
#7162521826
bZ a72
#7162521826
b0 a61
#7162521865
bZ a33
#7162521946
b0 a50
#7162521996
bZ a31
#7162522043
bZ a32
#7162522176
bZ a38
#7162522400
b0 a39
#7162522402
b0 a35
#7162522533
bZ a43
#7162522568
bZ a37
#7162522674
bZ a59
#7162522675
b0 a51
#7162522847
bZ a73
#7162522927
b0 a64
#7162522930
b0 a52
#7162523018
b0 a30
#7162523072
bZ a47
#7162523150
bZ a74
#7162523260
bZ a75
#7162523435
b0 a56
#7162523450
bZ a76
#7162523510
bZ a77
#7162523613
b0 a60
#7162523631
bZ a78
#7162523738
b0 a40
#7162523876
bZ a79
#7162523877
b0 a68
#7162523918
bZ a80
#7162524008
b0 a69
#7162524038
bZ a81
#7162524126
b0 a41
#7162524215
b0 a70
#7162524237
bZ a50
#7162524285
b0 a71
#7162524358
bZ a35
#7162524465
b0 a72
#7162524714
b0 a31
#7162524731
bZ a82
#7162524861
b0 a82
#7162524873
bZ a83
#7162524939
bZ a40
#7162524978
bZ a39
#7162525085
b0 a34
#7162525194
b0 a32
#7162525210
bZ a84
#7162525306
b0 a43
#7162526187
b0 a38
#7162526209
bZ a8
#7162527072
bZ a34
#7162527303
b0 a59
#7162528001
bZ a85
#7162528117
b0 a37
#7162528196
bZ a86
#7162528319
b0 a47
#7162528605
b0 a75
#7162528626
bZ a31
#7162528698
b0 a76
#7162528744
bZ a32
#7162528798
bZ a87
#7162528991
b0 a78
#7162528993
b0 a77
#7162529297
bZ a60
#7162529388
b0 a79
#7162529467
bZ a88
#7162529553
b0 a80
#7162529709
bZ a89
#7162529788
b0 a81
#7162530030
bZ a61
#7162530120
b0 a50
#7162530278
bZ a90
#7162530399
b0 a35
#7162530546
bZ a91
#7162530621
b0 a83
#7162530825
bZ a83
#7162530920
b0 a39
#7162530988
bZ a48
#7162531068
b0 a84
#7162531119
bZ a30
#7162531309
b0 a8
#7162531339
bZ a8
#7162531363
bZ a39
#7162531470
b0 a34
#7162531594
b0 a62
#7162531711
bZ a37
#7162531796
b0 a85
#7162531866
bZ a38
#7162531980
b0 a30
#7162533781
bZ a34
#7162534017
b0 a86
#7162537578
b0 a7
#7162552342
b0 a33
#7162552343
bZ a66
#7162553416
bZ a33
#7162553736
b0 a73
#7162554001
b0 a31
#7162555119
bZ a92
#7162556267
b0 a87
#7162559803
bZ a7
#7162560117
b0 a60
#7162563359
b0 a63
#7162563359
bZ a93
#7162564381
bZ a63
#7162573307
b0 a44
#7162596333
bZ a56
#7162596730
bZ a31
#7162596924
b0 a32
#7162602309
bZ a32
#7162603149
bZ a58
#7162603339
b0 a89
#7162603341
b0 a88
#7162603431
bZ a76
#7162603654
b0 a61
#7162603681
bZ a80
#7162603801
b0 a90
#7162603827
bZ a35
#7162603935
b0 a40
#7162603936
bZ a94
#7162604951
bZ a40
#7162605192
b0 a91
#7162774327
bZ a50
#7162774618
b0 a83
#7162774699
b- a95
#7162774714
bZ a41
#7162774731
bX a95
#7162775033
b- a95
#7162775082
bZ a44
#7162777029
bX a95
#7162791016
bZ a62
#7162793048
bZ a30
#7162793556
b0 a48
#7162793595
bZ a64
#7162793647
bZ a47
#7162793739
b0 a39
#7162793810
bZ a96
#7162794373
bZ a57
#7162794585
bZ a97
#7162794725
b0 a38
#7162796847
b0 a37
#7162797686
b0 a56
#7162799389
b- a98
#7162799422
b- a95
#7162799461
bZ a99
#7162799481
bX a98
#7162800234
bZ a95
#7162800364
b0 a32
#7162803728
b0 a33
#7162803728
bZ a66
#7162804746
bZ a33
#7162804966
b0 a31
#7162805947
bZ a32
#7162808673
bX a26
#7162813339
b- a98
#7162813357
b- a26
#7162813399
bZ a99
#7162813418
bX a98
#7162815809
b0 a58
#7162822645
bX a26
#7162827270
b- a98
#7162827287
b- a26
#7162827334
bZ a99
#7162827355
bX a98
#7162836262
bZ a39
#7162836447
b0 a76
#7162836693
bX a26
#7162841381
b- a98
#7162841404
b- a26
#7162841448
bZ a99
#7162841468
bX a98
#7162849409
b- a100
#7162849424
b- a98
#7162849451
bZ a101
#7162849466
bX a100
#7162849518
b- a100
#7162849614
bX a98
#7162849633
bZ a100
#7162850672
bX a26
#7162855265
b- a98
#7162855283
b- a26
#7162855323
bZ a99
#7162855344
bX a98
#7162864503
bX a26
#7162869237
b- a98
#7162869261
b- a26
#7162869299
bZ a99
#7162869320
bX a98
#7162878382
bX a26
#7162883063
b- a98
#7162883080
b- a26
#7162883123
bZ a99
#7162883144
bX a98
#7162892472
bX a26
#7162897104
b- a98
#7162897125
b- a26
#7162897166
bZ a99
#7162897185
bX a98
#7162906432
bX a26
#7162911166
b- a98
#7162911198
b- a26
#7162911244
bZ a99
#7162911264
bX a98
#7162920530
bX a26
#7162925265
b- a98
#7162925284
b- a26
#7162925336
bZ a99
#7162925356
bX a98
#7162925862
b- a98
#7162925870
bX a26
#7162926301
bZ a98
#7162926417
b0 a80
#7162959125
bZ a28
#7162964249
b0 a34
#7162986017
b0 a40
#7163024791
b- a98
#7163024813
b- a26
#7163024853
bZ a99
#7163024878
bX a98
#7163034186
bX a26
#7163038924
b- a98
#7163038939
b- a26
#7163038988
bZ a99
#7163039008
bX a98
#7163048150
bX a26
#7163052778
b- a98
#7163052808
b- a26
#7163052853
bZ a99
#7163052876
bX a98
